\relax 
\bibstyle{camda13}
\citation{Uehara2010}
\citation{Pessiot2013}
\citation{Subramanian2005,Pessiot2013}
\citation{Uehara2010}
\citation{clevertexploiting,pessiot2013impact}
\citation{pessiot2013impact}
\citation{Uehara2010}
\citation{shigetta2013statistical}
\citation{breiman2001}
\citation{Pessiot2013}
\bibdata{camda13}
\bibcite{Uehara2010}{1}
\@writefile{lof}{\contentsline {figure}{\numberline {1}{\ignorespaces ROC curve in classifying DILI using Rat \emph  {in vitro} data of different conditions\relax }}{3}}
\@writefile{lof}{\contentsline {subfigure}{\numberline{(a)}{\ignorespaces {Low dose level}}}{3}}
\@writefile{lof}{\contentsline {subfigure}{\numberline{(b)}{\ignorespaces {Middle dose level}}}{3}}
\@writefile{lof}{\contentsline {subfigure}{\numberline{(c)}{\ignorespaces {High dose level}}}{3}}
\providecommand*\caption@xref[2]{\@setref\relax\@undefined{#1}}
\newlabel{Invitro-DILI-roc}{{1}{3}}
\bibcite{Pessiot2013}{2}
\@writefile{lof}{\contentsline {figure}{\numberline {2}{\ignorespaces DILI classification ROC curve using \emph  {in vitro} rat data to classify \emph  {in vivo} rat data and human \emph  {in vitro}, with 1000 trees in a Random Forest\relax }}{4}}
\@writefile{lof}{\contentsline {subfigure}{\numberline{(a)}{\ignorespaces {Rat In vitro classify rat \emph {in vivo}}}}{4}}
\@writefile{lof}{\contentsline {subfigure}{\numberline{(b)}{\ignorespaces {Rat In vitvo classify human \emph {in vitro}}}}{4}}
\newlabel{DILI-invivoinvitro-prediction}{{2}{4}}
\@writefile{lof}{\contentsline {figure}{\numberline {3}{\ignorespaces Venn diagram of common differentially expressed genes in \emph  {in vivo} and \emph  {in vitro} microarray\relax }}{4}}
\newlabel{venn}{{3}{4}}
\bibcite{Subramanian2005}{3}
\bibcite{clevertexploiting}{4}
\bibcite{pessiot2013impact}{5}
\bibcite{shigetta2013statistical}{6}
\bibcite{breiman2001}{7}
\@writefile{lof}{\contentsline {figure}{\numberline {4}{\ignorespaces ROC curve for classifying five pathologies\relax }}{5}}
\newlabel{pathology-prediction}{{4}{5}}
